{
  "firebaseConfig": {
    "apiKey": "AIzaSyC5wKsgNXDPEWufoX2EouzsWcucImYk3xo",
    "authDomain": "quiz-api-34a7b.firebaseapp.com",
    "databaseURL": "https://quiz-api-34a7b.firebaseio.com",
    "projectId": "quiz-api-34a7b",
    "storageBucket": "quiz-api-34a7b.appspot.com",
    "messagingSenderId": "695338497696",
    "appId": "1:695338497696:web:ad6c2c3c0ead47a16f3bc5"
  }
}
